<svg width="949" height="900" viewBox="0 0 949 900" fill="none" xmlns="http://www.w3.org/2000/svg">
<path fill-rule="evenodd" clip-rule="evenodd" d="M949 6.5C915.192 7.2168 885.891 16.9554 863.5 32C841.109 47.0446 783.792 96.1366 796.482 186.391C810.709 287.574 764.001 360.266 690.567 350.148C509.872 325.251 411.119 413.665 453.317 571.154C472.58 643.047 480.987 694.816 324.807 717.604C230.189 731.409 127.552 767.295 149.693 900H949V6.5Z" fill="white"/>
<circle cx="489.08" cy="74.6154" r="40" fill="white"/>
<circle cx="25" cy="826.479" r="25" fill="white"/>
<circle cx="250" cy="679" r="25" fill="white"/>
<circle cx="529" cy="284" r="35" fill="white"/>
<circle cx="712" cy="60" r="25" fill="white"/>
</svg>
